BBBBBBBBBBBBBBBBBBBBBBBBBBBBBBBBBBBBBBBBBBBBBBBBBBBBBBBBBBBBBBBB
BBBBBBBBBBBBBBBBBBBBBBBBBBBBBBBBBBBBBBBBBBBBBBBBBBBBBBBBBBBBBBBB
B                                                              B
B                                                              B
B                                                              B
B                                                              B
B                                                              B
B                                                              B
B                                                              B
B                                                              B
B                                                              B
B                                                              B
B                                                              B
B                                                              B
B                                                              B
B                                                              B
B                                                              B
B                                                              B
B                                                              B
B                                                              B
B                                                              B
B                                                              B
B                                                              B
B                                                              B
B                                                              B
B                                                              B
B                                                              B
B                                                              B
B   .......                                          .......   B
B   .     .                                          .     .   B
B   .     .                                          . E   .   B
B   .     .                                          .     .   B
B   .  S  .                                          .     .   B
B   .     .                                          .     .   B
BBBBBBBBBBBBBBBBBBBBBBBBBBBBBBBBBBBBBBBBBBBBBBBBBBBBBBBBBBBBBBBB
BBBBBBBBBBBBBBBBBBBBBBBBBBBBBBBBBBBBBBBBBBBBBBBBBBBBBBBBBBBBBBBB
;Tempy the Template