BBBBBBBBBBBBBBBBBBBBBBBBBBBBBBBBBBBBBBBBBBBBBBBBBBBBBBBBBBBBBBBB
BBBBBBBBBBBBBBBBBBBBBBBBBBBBBBBBBBBBBBBBBBBBBBBBBBBBBBBBBBBBBBBB
B            vKvvvvvvvvvvvvKvvvvvvvvvvvKvvvvvvvvvvvKvvvvvvvvvvvB
B             h            h           h           h           B
B             h            h           h           h           B
B             h            h           h           h           B
B             h            h           h           h           B
B             h            h           h           h           B
B             h            h           h           h           B
B             h            h           h          ^I^        ^^B
B             h            h           h          BBB       <BBB
B             h            h           h          BBB       <BBB
B             h            h           h          BBB       <BBB
B             h            h           h          BBB        vvB
B             h            h           h          BBB          B
B             h            h           h          BBB          B
B             h            h           h          BBB          B
B             h            h           h          BBB          B
B             h            h           h          BBB          B
B             h           ^I^          h          BBB^^        B
B             h          <BBBBBBBBBBBBBBB>       <BBBBB>      <B
B             h          <BBBBBBBBBBBBBBB>       <BBBBB>      <B
B             h          <BBBBBBBBBBBBBBB>       <BBBBB>      <B
B             h           BBBBBBBBBBBBBBB         BBBvv        B
B             h           BBBBBBBBBBBBBBB   E     BBB          B
B             h           BBBBBBBBBBBBBBB         BBB          B
B      S      h           BBBBBBBBBBBBBBB         BBB          B
B            ^I^          BBBBBBBBBBBBBBB         BBB          B
BBBBBBBBBBBBBBBB>        <BBBBBBBBBBBBBBBBBBBBBBBBBBB>        <B
BBBBBBBBBBBBBBBB>        <BBBBBBBBBBBBBBBBBBBBBBBBBBBLggggggggJB
BBBBBBBBBBBBBBBB>        <BBBBBBBBBBBBBBBBBBBBBBBBBBB>        <B
BBBBBBBBBBBBBBBB          BBBBBBBBBBBBBBBBBBBBBBBBBBB          B
BBBBBBBBBBBBBBBB          BBBBBBBBBBBBBBBBBBBBBBBBBBB          B
BBBBBBBBBBBBBBBB^^^^^^^^^^BBBBBBBBBBBBBBBBBBBBBBBBBBB^^^^^^^^^^B
BBBBBBBBBBBBBBBBBBBBBBBBBBBBBBBBBBBBBBBBBBBBBBBBBBBBBBBBBBBBBBBB
BBBBBBBBBBBBBBBBBBBBBBBBBBBBBBBBBBBBBBBBBBBBBBBBBBBBBBBBBBBBBBBB
