BBBBBBBBBBBBBBBBBBBBBBBBBBBBBBBBBBBBBBBBBBBBBBBBBBBBBBBBBBBBBBBB
BBBBBBBBBBBBBBBBBBBBBBBBBBBBBBBBBBBBBBBBBBBBBBBBBBBBBBBBBBBBBBBB
B                                                              B
B                                                              B
B                                                              B
B                                                              B
B                                                              B
B                                                              B
B                                                              B
B                                                              B
B                                                              B
B                                                              B
B                                                              B
B                                                              B
B               ^^                                             B
B              <BB>                                            B
B              <BB>                                            B
B               vv                                             B
B                                                              B
B                                                              B
B                        ^^    ^^    ^^    ^^                  B
B                       <BB>  <BB>  <BB>  <BB>                 B
B   .......             <BB>  <BB>  <BB>  <BB>       .......   B
B   .     .              vv    vv    vv    vv        .     .   B
B   .     .                                          . E   .   B
B   .     .     ^^                                   .     .   B
B   .  S  .    <BB>                                  .     .   B
B   .     .    <BB>                                  .     .   B
BBBBBBBBBBBBBBBBBB[[[[[[[[[[[[[[[[[[[[[[[[[[[[[[[[[BBBBBBBBBBBBB
BBBBBBBBBBBBBBBBBBBBBBBBBBBBBBBBBBBBBBBBBBBBBBBBBBBBBBBBBBBBBBBB
BBBBBBBBBBBBBBBBBBBBBBBBBBBBBBBBBBBBBBBBBBBBBBBBBBBBBBBBBBBBBBBB
BBBBBBBBBBBBBBBBBBBBBBBBBBBBBBBBBBBBBBBBBBBBBBBBBBBBBBBBBBBBBBBB
BBBBBBBBBBBBBBBBBBBBBBBBBBBBBBBBBBBBBBBBBBBBBBBBBBBBBBBBBBBBBBBB
BBBBBBBBBBBBBBBBBBBBBBBBBBBBBBBBBBBBBBBBBBBBBBBBBBBBBBBBBBBBBBBB
BBBBBBBBBBBBBBBBBBBBBBBBBBBBBBBBBBBBBBBBBBBBBBBBBBBBBBBBBBBBBBBB
BBBBBBBBBBBBBBBBBBBBBBBBBBBBBBBBBBBBBBBBBBBBBBBBBBBBBBBBBBBBBBBB

